{
    "/cars/**": {
      "target": "http://localhost:8080/RentCarsRest/rest/",
      "secure": false,
      "logLevel": "debug",
      "changeOrigin": true
    },
    "/users/**": {
      "target": "http://localhost:8080/RentCarsRest/rest/",
      "secure": false,
      "logLevel": "debug",
      "changeOrigin": true
    },
    "/buycar/**": {
      "target": "http://localhost:8090/UPEMCarsService/rest/",
      "secure": false,
      "logLevel": "debug",
      "changeOrigin": true
    }
  }